levels/emerentius/000.txt: 130.36235733333334 ms
levels/emerentius/001.txt: 355.5021653333333 ms
levels/emerentius/002.txt: 3887.6770986666666 ms
levels/emerentius/003.txt: 14672.581973333334 ms
levels/emerentius/004.txt: 944.5599573333334 ms
levels/emerentius/005.txt: 6.612126 ms
levels/emerentius/006.txt: 602.7197866666667 ms
levels/emerentius/007.txt: 10227.99872 ms
levels/emerentius/008.txt: 1222.9650773333333 ms
levels/emerentius/009.txt: 55.853072 ms
levels/emerentius/010.txt: 0.2638493333333333 ms
levels/emerentius/011.txt: 0.4057536666666667 ms
levels/emerentius/012.txt: 442.5755306666667 ms
levels/emerentius/013.txt: 170.98923733333334 ms
levels/emerentius/014.txt: 148.60814933333333 ms
levels/emerentius/015.txt: 77.94215466666667 ms
levels/emerentius/016.txt: 1107.093504 ms
levels/emerentius/017.txt: 0.22436833333333334 ms
levels/emerentius/018.txt: 625.6299093333333 ms
levels/emerentius/019.txt: 38655.05792 ms
levels/emerentius/020.txt: 13601.097045333334 ms
levels/tdoku/000.txt: 423.600512 ms
levels/tdoku/001.txt: 995.4051413333333 ms
levels/tdoku/002.txt: 756.922624 ms
levels/tdoku/003.txt: 247.80893866666668 ms
levels/tdoku/004.txt: 86.32216533333333 ms
levels/tdoku/005.txt: 1254.5040213333334 ms
levels/tdoku/006.txt: 601.4725546666666 ms
levels/tdoku/007.txt: 114.71618133333334 ms
levels/tdoku/008.txt: 944.21888 ms
levels/tdoku/009.txt: 0.12386733333333333 ms
levels/tdoku/010.txt: 0.10639166666666666 ms
levels/tdoku/011.txt: 0.14897533333333332 ms
levels/tdoku/012.txt: 0.12047333333333334 ms
levels/tdoku/013.txt: 0.216322 ms
levels/tdoku/014.txt: 0.16374233333333332 ms
levels/tdoku/015.txt: 0.195644 ms
levels/tdoku/016.txt: 0.109789 ms
levels/tdoku/017.txt: 0.175629 ms
TOTAL: 92.37247863466666 s
